{
    "frontend":  {
       "baseURL": "/"
    },
    "routing": {
        "root": {
            "route": "/team",
            "name": "Root"
        },
        "getuser": "/getuser",
        "signin": {
            "route": "/signin",
            "name": "Team Signin"
        },
        "logout": {
            "route": "/logout"
        },
        "home": {
            "route": "/",
            "name": "Team Home"
        },
        "game": {
            "player": {
                "view": {
                    "route": "/getplayer",
                    "name": "View Player"
                },
                "edit": {
                    "route": "/editplayer",
                    "name": "Edit Player"
                },
                "get": {
                    "route": "/getplayerdata?pid=",
                    "name": "Get Playerdata"
                }
            },
            "vehicle": {
                "view": {
                    "route": "/getvehicle",
                    "name": "View Vehicle"
                },
                "edit": {
                    "route": "/editvehicle",
                    "name": "Edit Vehicle"
                },
                "getone": {
                    "route": "/getvehicle?vid="
                }
            },
            "forum": {
                "view": {
                    "route": "/forum/view",
                    "name": "View Forum"
                }
            }
        }
    }
}